<?xml version="1.0" encoding="utf-8"?>
<!-- Generator: Adobe Illustrator 16.0.3, SVG Export Plug-In . SVG Version: 6.00 Build 0)  -->
<!DOCTYPE svg PUBLIC "-//W3C//DTD SVG 1.1//EN" "http://www.w3.org/Graphics/SVG/1.1/DTD/svg11.dtd">
<svg version="1.1" id="Capa_1" xmlns="http://www.w3.org/2000/svg" xmlns:xlink="http://www.w3.org/1999/xlink" x="0px" y="0px"
	 width="208.317px" height="208.316px" viewBox="0 0 208.317 208.316" enable-background="new 0 0 208.317 208.316"
	 xml:space="preserve">
<g>
	<path fill="#FF7A2D" d="M208.317,181.653c0,14.727-11.939,26.664-26.664,26.664H26.665c-14.727,0-26.664-11.938-26.664-26.664
		V26.665c0-14.727,11.938-26.664,26.664-26.664h154.988c14.725,0,26.664,11.938,26.664,26.664V181.653z"/>
	<path fill="#FF9557" d="M104.159,0.001H26.665c-14.727,0-26.664,11.938-26.664,26.664v154.988
		c0,14.727,11.938,26.664,26.664,26.664h77.494V0.001z"/>
	<path fill="#FFD000" d="M141.579,179.61c0-6.1-4.947-11.043-11.045-11.043h-0.643v-31.412l-16.387-15.377h-4.479v-8.354
		l27.322,14.363l-6.141-35.844l26.039-25.387l-35.99-5.236l-16.1-32.612L88.06,61.321l-35.99,5.232L78.11,91.944l-6.148,35.844
		l27.393-14.4v8.391h-4.477l-16.393,15.377v31.412h-0.637c-6.1,0-11.045,4.943-11.045,11.043H141.579z"/>
	<path fill="#009DB3" d="M94.878,121.778h18.627l16.387,15.377v31.412c0,0,5.461-0.559,9.02,3.678
		c3.697,4.402,2.668,7.365,2.668,7.365H66.804c0,0-0.395-4.316,3.502-8.213c3.643-3.643,8.18-2.83,8.18-2.83v-31.412L94.878,121.778
		z"/>
	<g>
		<polygon fill="#00D0CE" points="129.892,137.075 129.892,137.051 113.505,121.672 94.878,121.672 78.485,137.051 78.485,137.075 
					"/>
		<path fill="#00D0CE" d="M138.911,172.139c-3.559-4.234-9.02-3.678-9.02-3.678v-0.049H78.485v0.049c0,0-0.154-0.027-0.426-0.049
			h-1.408c-1.656,0.115-4.16,0.693-6.346,2.881c-3.896,3.895-3.502,8.211-3.502,8.211h74.775
			C141.579,179.504,142.608,176.542,138.911,172.139z"/>
	</g>
	<polygon fill="#FFE15C" points="104.157,28.709 104.157,82.463 88.06,61.321 	"/>
	<polygon fill="#FFE15C" points="52.069,66.553 104.157,82.463 78.11,91.944 	"/>
	<polygon fill="#FFE15C" points="71.962,127.788 104.157,82.463 104.157,111.743 	"/>
	<polygon fill="#FFE15C" points="104.157,82.463 156.247,66.557 120.257,61.321 	"/>
	<polygon fill="#FFE15C" points="130.208,91.944 136.349,127.788 104.157,82.463 	"/>
	<path fill="#FFE266" d="M78.485,137.155"/>
	<path fill="#CFF1F4" fill-opacity="0.3" d="M104.015,121.649h-9.137l-16.393,15.412v31.48c0,0-4.537-0.814-8.18,2.838
		c-3.896,3.904-3.502,8.23-3.502,8.23h37.211V121.649z"/>
</g>
</svg>
