<?xml version="1.0" encoding="utf-8"?>
<!-- Generator: Adobe Illustrator 19.1.0, SVG Export Plug-In . SVG Version: 6.00 Build 0)  -->
<svg version="1.1" id="Layer_1" xmlns="http://www.w3.org/2000/svg" xmlns:xlink="http://www.w3.org/1999/xlink" x="0px" y="0px"
	 viewBox="-41 164.9 512 512" style="enable-background:new -41 164.9 512 512;" xml:space="preserve">
<style type="text/css">
	.st0{fill:#FC7108;}
</style>
<path class="st0" d="M281.4,417.2l75.1-75.1c19.3,5.1,40.1,3.4,58.5-4.9L298.6,220.9c-8.3,18.5-9.9,39.2-4.9,58.5l-75.1,75.1
	c-35.2-16.7-76.2-17.1-111.6-1.2l65,65L15,620.9l202.6-157l65,65C298.5,493.4,298.1,452.4,281.4,417.2z M160.5,381.4
	c0,0-16.6-16.6-21.3-21c37-10.8,61.4,4.3,61.4,4.3C177.9,357.7,160.5,381.4,160.5,381.4z"/>
</svg>
